Name             Stmts   Miss Branch BrPart  Cover   Missing
------------------------------------------------------------
Netflix.py          38      0      4      0   100%
TestNetflix.py      28      0      0      0   100%
------------------------------------------------------------
TOTAL               66      0      4      0   100%
