................
----------------------------------------------------------------------
Ran 16 tests in 0.005s

OK
Name             Stmts   Miss Branch BrPart  Cover   Missing
------------------------------------------------------------
Netflix.py          82      2     10      1    97%   22-23, 21->22
TestNetflix.py      74      0      0      0   100%
------------------------------------------------------------
TOTAL              156      2     10      1    98%
